[gd_scene load_steps=5 format=2]

[ext_resource path="res://Scripts/Dead.gd" type="Script" id=1]
[ext_resource path="res://Assets/Fonts/winfield_50.tres" type="DynamicFont" id=2]
[ext_resource path="res://Assets/Fonts/Roboto.tres" type="DynamicFont" id=3]
[ext_resource path="res://Assets/Resources/DefaultTheme.tres" type="Theme" id=4]

[node name="ColorRect" type="ColorRect"]
anchor_right = 1.0
anchor_bottom = 1.0
color = Color( 0.203922, 0.407843, 0.392157, 1 )
script = ExtResource( 1 )

[node name="Label" type="Label" parent="."]
margin_left = 404.184
margin_top = 46.765
margin_right = 626.184
margin_bottom = 127.765
custom_fonts/font = ExtResource( 2 )
text = "You Died!"

[node name="Label2" type="Label" parent="."]
margin_left = 251.681
margin_top = 212.723
margin_right = 801.681
margin_bottom = 366.723
custom_fonts/font = ExtResource( 3 )
text = "Dont need to be so hard on yourself, this 
game is not made to be completed 
on the first try, enjoy a bonus of +10 max 
HP, +5 damage, and +2 heal per heals."
align = 1

[node name="LinkButton" type="LinkButton" parent="."]
margin_left = 442.598
margin_top = 450.949
margin_right = 603.598
margin_bottom = 484.949
theme = ExtResource( 4 )
text = "Continue"
underline = 2
[connection signal="pressed" from="LinkButton" to="." method="_on_LinkButton_pressed"]
